{
  "tag": "serviceLocation",
  "enum": [
    "1",
    "249",
    "79",
    "159",
    "195",
    "116",
    "150",
    "153",
    "135",
    "213",
    "184",
    "239",
    "224",
    "245",
    "125",
    "142",
    "230",
    "172",
    "124",
    "175",
    "248",
    "250",
    "25",
    "32",
    "11",
    "43",
    "209",
    "173",
    "36",
    "252",
    "9",
    "54",
    "12",
    "55",
    "5",
    "97",
    "114",
    "208",
    "219",
    "226"
  ],
  "type": "string",
  "title": "Service Location",
  "enumNames": [
    "Case Management Documentation - AGP",
    "Case Management Documentation - East",
    "Case Management Documentation - West",
    "NV Flamingo Care Center",
    "NV Flamingo POS 49 Independent Clinic",
    "NV Flamingo POS 49 Telephonic",
    "NV Flamingo POS 49 Virtual Ind Clinic",
    "NV Flamingo Telephonic Care",
    "NV Flamingo  Virtual Care Center",
    "NV Henderson Care Center",
    "NV Henderson POS 49 Independent Clinic",
    "NV Henderson POS 49 Telephonic",
    "NV Henderson POS 49 Virtual Care",
    "NV Henderson Telephonic Care",
    "NV Henderson Virtual Care Center",
    "NV Tenaya Care Center",
    "NV Tenaya POS 49 Telephonic",
    "NV Tenaya POS 49 Virtual Ind Clinic",
    "NV Tenaya Telephonic Care",
    "NV Tenaya Virtual Care Center",
    "Outreach Documentation - East",
    "Outreach Documentation - West",
    "Telephonic Care - AGP",
    "Telephonic Care - East",
    "Telephonic Care POS 49 - AGP",
    "Telephonic Care POS 49 - East",
    "Telephonic Care POS 49 - West",
    "Telephonic Care - West",
    "Togetherness - East",
    "Togetherness - West",
    "Virtual Care Center - AGP",
    "Virtual Care Center - East",
    "Virtual Care Center POS 49 - AGP",
    "Virtual Care Center POS 49 - East",
    "Virtual Care Center POS 49 - West",
    "Virtual Care Center - West",
    "Virtual Care - West",
    "Z East Office",
    "Z GV Office",
    "Z West Office"
  ]
}
